@startuml
[*] --> Submitted : Customer submits Burn Token request
Submitted --> TokenTransferred: Customer transfers token to Admin
TokenTransferred --> TokenBurned: Admin burns token and submits transaction ID
TokenBurned --> FiatTransferred: Admin transfers Fiat to Customer and submits Fiat Transaction ID
FiatTransferred --> [*]
@enduml
